<?xml version="1.0" encoding="UTF-8"?>
<svg width="64" height="64" viewBox="0 0 64 64" xmlns="http://www.w3.org/2000/svg" xmlns:xlink="http://www.w3.org/1999/xlink">
    <defs></defs>
    <title>exit intent</title>
    <g id="Symbols">
        <rect id="Rectangle-4" class="cls-1" width="64" height="64" fill="#fff" fill-opacity="0"/>
        <path class="cls-2" fill="#414a4f"
              d="M59.5,51H4.5A4.51,4.51,0,0,1,0,46.5v-39A4.51,4.51,0,0,1,4.5,3h55A4.51,4.51,0,0,1,64,7.51v39A4.51,4.51,0,0,1,59.5,51ZM4.5,6A1.51,1.51,0,0,0,3,7.51v39A1.5,1.5,0,0,0,4.5,48h55A1.5,1.5,0,0,0,61,46.5v-39A1.51,1.51,0,0,0,59.5,6Z"/>
        <path class="cls-2" fill="#414a4f"
              d="M44.5,64h-25a1.5,1.5,0,0,1,0-3A4.51,4.51,0,0,0,24,56.5v-7h3v7A7.47,7.47,0,0,1,25.5,61h13A7.47,7.47,0,0,1,37,56.5v-7h3v7A4.51,4.51,0,0,0,44.5,61a1.5,1.5,0,0,1,0,3Z"/>
        <path class="cls-3" fill="#5fba46" d="M17.78,27.59l2.38-4.76a1.45,1.45,0,0,1,.67-.67l4.76-2.38L13.87,15.87Z"/>
        <path class="cls-2" fill="#414a4f"
              d="M31.56,31.44,24,23.91l6.14-3.07a1.49,1.49,0,0,0-.2-2.76l-18-6A1.49,1.49,0,0,0,10.08,14l6,18a1.51,1.51,0,0,0,1.31,1h.11a1.49,1.49,0,0,0,1.34-.83L21.91,26l7.53,7.53a1.5,1.5,0,0,0,2.12,0A1.49,1.49,0,0,0,31.56,31.44ZM17.78,27.59,13.87,15.87l11.72,3.91-4.76,2.38a1.45,1.45,0,0,0-.67.67Z"/>
        <rect class="cls-2" fill="#414a4f" x="1.5" y="40" width="61" height="3"/>
    </g>
</svg>
