<?xml version="1.0" encoding="UTF-8"?>
<svg width="65px" height="64px" viewBox="0 0 65 64" version="1.1" xmlns="http://www.w3.org/2000/svg" xmlns:xlink="http://www.w3.org/1999/xlink">
    <!-- Generator: Sketch 47.1 (45422) - http://www.bohemiancoding.com/sketch -->
    <title>forward</title>
    <desc>Created with Sketch.</desc>
    <defs></defs>
    <g id="Symbols" stroke="none" stroke-width="1" fill="none" fill-rule="evenodd">
        <g id="forward" fill-rule="nonzero">
            <g>
                <rect id="Rectangle-4" fill-opacity="0" fill="#FFFFFF" x="0.12" y="0" width="64" height="64"></rect>
                <path d="M52.49,24.87 C51.6615729,24.87 50.99,24.1984271 50.99,23.37 C50.99,12.396102 42.093898,3.5 31.12,3.5 C20.146102,3.5 11.25,12.396102 11.25,23.37 C11.25,24.1984271 10.5784271,24.87 9.75,24.87 C8.92157288,24.87 8.25,24.1984271 8.25,23.37 C8.25,10.7392478 18.4892478,0.5 31.12,0.5 C43.7507522,0.5 53.99,10.7392478 53.99,23.37 C53.99,24.1984271 53.3184271,24.87 52.49,24.87 L52.49,24.87 Z" id="Shape" fill="#414A4E"></path>
                <path d="M18.06,15.73 L12.74,15.73 C12.4155613,15.7292841 12.0999806,15.6240905 11.84,15.43 L7.57,12.28 L9.36,24.5 L18.06,15.73 Z" id="Shape" fill="#5FBA46"></path>
                <path d="M23,13.54 L23,13.64 C23.2358777,14.200967 23.1094605,14.8488551 22.68,15.28 L9.38,28.74 C8.97969963,29.1440483 8.38531034,29.2869377 7.84509885,29.1089856 C7.30488735,28.9310336 6.9117911,28.4628549 6.83,27.9 L4.07,9.13 C3.98231619,8.52977877 4.26476906,7.93582764 4.7856884,7.62502703 C5.30660774,7.31422642 5.96344328,7.34776176 6.45,7.71 L13.22,12.71 L21.66,12.71 C22.2277495,12.7107764 22.7464055,13.0320335 23,13.54 Z M9.36,24.5 L18.06,15.73 L12.74,15.73 C12.4155613,15.7292841 12.0999806,15.6240905 11.84,15.43 L7.57,12.28 L9.36,24.5 Z" id="Shape" fill="#414A4F"></path>
                <path d="M16.39,64 L3.78,64 C1.6907471,63.9944874 -7.27251897e-06,62.2992602 0,60.21 L0,38.46 C-7.27251898e-06,36.3707398 1.6907471,34.6755126 3.78,34.67 L16.39,34.67 C18.4792529,34.6755126 20.1700073,36.3707398 20.17,38.46 L20.17,60.21 C20.1700073,62.2992602 18.4792529,63.9944874 16.39,64 Z M3.78,37.67 C3.34760529,37.6754738 2.99996535,38.0275706 3,38.46 L3,60.21 C2.99996535,60.6424294 3.34760529,60.9945262 3.78,61 L16.39,61 C16.8223947,60.9945262 17.1700346,60.6424294 17.17,60.21 L17.17,38.46 C17.1700346,38.0275706 16.8223947,37.6754738 16.39,37.67 L3.78,37.67 Z" id="Shape" fill="#414A4F"></path>
                <path d="M11.8,43.4 L8.37,43.4 C7.54157288,43.4 6.87,42.7284271 6.87,41.9 C6.87,41.0715729 7.54157288,40.4 8.37,40.4 L11.8,40.4 C12.6284271,40.4 13.3,41.0715729 13.3,41.9 C13.3,42.7284271 12.6284271,43.4 11.8,43.4 L11.8,43.4 Z" id="Shape" fill="#414A4F"></path>
                <path d="M60.3,64 L44.69,64 C42.6007471,63.9944874 40.9099927,62.2992602 40.91,60.21 L40.91,27.46 C40.9099927,25.3707398 42.6007471,23.6755126 44.69,23.67 L60.29,23.67 C61.2951705,23.67 62.2591718,24.0693024 62.9699347,24.7800653 C63.6806976,25.4908282 64.08,26.4548295 64.08,27.46 L64.08,60.21 C64.0800073,62.2992602 62.3892529,63.9944874 60.3,64 Z M44.69,26.67 C44.2576053,26.6754738 43.9099654,27.0275706 43.91,27.46 L43.91,60.21 C43.9099654,60.6424294 44.2576053,60.9945262 44.69,61 L60.3,61 C60.7323947,60.9945262 61.0800346,60.6424294 61.08,60.21 L61.08,27.46 C61.08,27.023695 60.726305,26.67 60.29,26.67 L44.69,26.67 Z" id="Shape" fill="#414A4F"></path>
                <path d="M54.21,32.4 L50.77,32.4 C49.9415729,32.4 49.27,31.7284271 49.27,30.9 C49.27,30.0715729 49.9415729,29.4 50.77,29.4 L54.2,29.4 C55.0284271,29.4 55.7,30.0715729 55.7,30.9 C55.7,31.7284271 55.0284271,32.4 54.2,32.4 L54.21,32.4 Z" id="Shape" fill="#414A4F"></path>
            </g>
        </g>
    </g>
</svg>