<?xml version="1.0" encoding="UTF-8"?>
<svg width="50px" height="64px" viewBox="0 0 50 64" version="1.1" xmlns="http://www.w3.org/2000/svg" xmlns:xlink="http://www.w3.org/1999/xlink">
    <!-- Generator: Sketch 46.2 (44496) - http://www.bohemiancoding.com/sketch -->
    <title>mobile</title>
    <desc>Created with Sketch.</desc>
    <defs></defs>
    <g id="Symbols" stroke="none" stroke-width="1" fill="none" fill-rule="evenodd">
        <g id="mobile" transform="translate(-7.000000, 0.000000)">
            <g>
                <rect id="Rectangle-path" fill-opacity="0" fill="#FFFFFF" fill-rule="nonzero" x="0" y="0" width="64" height="64"></rect>
                <path d="M16.5,18.5 L16.5,4.5 C16.5,2.84314575 17.8431458,1.5 19.5,1.5 L44.5,1.5 C46.1568542,1.5 47.5,2.84314575 47.5,4.5 L47.5,18.5" id="Shape" stroke="#414A4F" stroke-width="3"></path>
                <circle id="Oval" stroke="#414A4F" stroke-width="3" fill="#5FBA46" fill-rule="nonzero" cx="32" cy="13.67" r="2.83"></circle>
                <polygon id="Shape" stroke="#414A4F" stroke-width="3" stroke-linejoin="round" points="8.5 17.5 55.5 17.5 55.5 52.5 32 62.5 8.5 52.5"></polygon>
                <path d="M8.66,25.5 L11.66,25.5" id="Shape" stroke="#414A4F" stroke-width="3" stroke-linecap="round" stroke-linejoin="round"></path>
                <path d="M19.66,25.5 L22.66,25.5" id="Shape" stroke="#414A4F" stroke-width="3" stroke-linecap="round" stroke-linejoin="round"></path>
                <path d="M30.66,25.5 L33.66,25.5" id="Shape" stroke="#414A4F" stroke-width="3" stroke-linecap="round" stroke-linejoin="round"></path>
                <path d="M41.66,25.5 L44.66,25.5" id="Shape" stroke="#414A4F" stroke-width="3" stroke-linecap="round" stroke-linejoin="round"></path>
                <path d="M51.66,25 L54.66,25" id="Shape" stroke="#414A4F" stroke-width="3" stroke-linecap="round" stroke-linejoin="round"></path>
            </g>
        </g>
    </g>
</svg>