<?xml version="1.0" encoding="UTF-8"?>
<svg width="55px" height="54px" viewBox="0 0 55 54" version="1.1" xmlns="http://www.w3.org/2000/svg" xmlns:xlink="http://www.w3.org/1999/xlink">
    <!-- Generator: Sketch 46.2 (44496) - http://www.bohemiancoding.com/sketch -->
    <title>question</title>
    <desc>Created with Sketch.</desc>
    <defs></defs>
    <g id="VPBX-landing" stroke="none" stroke-width="1" fill="none" fill-rule="evenodd">
        <g transform="translate(-1313.000000, -2782.000000)" id="Imagine">
            <g transform="translate(0.000000, 2482.000000)">
                <g id="Group" transform="translate(1281.000000, 302.000000)">
                    <g id="question" transform="translate(34.000000, 0.000000)">
                        <path d="M25.20575,0.218085106 C11.3577065,0.218085106 0.0922717391,11.2438298 0.0922717391,24.797234 C0.0922717391,38.3506383 11.3577065,49.3752128 25.20575,49.3752128 C39.0537935,49.3752128 50.3180326,38.3506383 50.3180326,24.797234 C50.3180326,11.2438298 39.0537935,0.218085106 25.20575,0.218085106" id="Fill-1" stroke="#4A4A4A" stroke-width="3.5" fill="#FFFFFF"></path>
                        <path d="M23.6178043,38.7334149 C23.6178043,38.4174574 23.7301957,38.1471383 23.9537826,37.9212872 C24.1785652,37.694266 24.4511739,37.5819255 24.774,37.5819255 C25.0956304,37.5819255 25.3730217,37.694266 25.6037826,37.9212872 C25.8345435,38.1471383 25.9505217,38.4174574 25.9505217,38.7334149 C25.9505217,39.0493723 25.8345435,39.3161809 25.6037826,39.5361809 C25.3730217,39.7550106 25.0956304,39.8650106 24.774,39.8650106 C24.4511739,39.8650106 24.1785652,39.7550106 23.9537826,39.5361809 C23.7301957,39.3161809 23.6178043,39.0493723 23.6178043,38.7334149 L23.6178043,38.7334149 Z M24.1223696,31.5132021 C24.1367174,30.7595851 24.1988913,30.0738404 24.3112826,29.4559681 C24.4236739,28.839266 24.609,28.2565 24.8684565,27.7076702 C25.127913,27.1588404 25.4674783,26.6310745 25.8871522,26.1243723 C26.3080217,25.6165 26.8269348,25.0817128 27.4426957,24.5200106 C28.0871522,23.9161809 28.6622609,23.3533085 29.1668261,22.8325638 C29.6701957,22.3118191 30.0982391,21.7665 30.4485652,21.1977766 C30.7988913,20.627883 31.0655217,20.0006489 31.2472609,19.3149043 C31.429,18.6291596 31.5198696,17.8135213 31.5198696,16.8668191 C31.5198696,15.9482021 31.3943261,15.0986277 31.1420435,14.3169255 C30.8897609,13.5352234 30.5119348,12.8600106 30.0073696,12.290117 C29.5028043,11.7213936 28.8691087,11.2755426 28.105087,10.953734 C27.3410652,10.6307553 26.455087,10.4704362 25.4459565,10.4704362 C24.4380217,10.4704362 23.5305217,10.623734 22.7246522,10.9326702 C21.9187826,11.2416064 21.2396522,11.6769255 20.6860652,12.2386277 C20.1324783,12.8015 19.7020435,13.4696915 19.3935652,14.2443723 C19.085087,15.0190532 18.9236739,15.8662872 18.9093261,16.7849043 L17.7746522,16.7849043 C17.789,15.6053298 18.0030217,14.5568191 18.4155217,13.6382021 C18.8292174,12.7195851 19.3863913,11.943734 20.0870435,11.3129894 C20.7876957,10.6822447 21.5971522,10.2024574 22.5142174,9.87362766 C23.4324783,9.54479787 24.4093261,9.37979787 25.4459565,9.37979787 C26.6236739,9.37979787 27.6603043,9.57171277 28.5570435,9.95554255 C29.4537826,10.3393723 30.2070435,10.8683085 30.8168261,11.5400106 C31.425413,12.2117128 31.8845435,13.0074574 32.1930217,13.9260745 C32.5015,14.8446915 32.6557391,15.8393723 32.6557391,16.9089468 C32.6557391,17.8135213 32.560087,18.6326702 32.3711739,19.3663936 C32.1822609,20.100117 31.8988913,20.7963936 31.5198696,21.4540532 C31.1420435,22.112883 30.662587,22.7576702 30.0803043,23.3884149 C29.4992174,24.0191596 28.8165,24.6838404 28.0309565,25.3836277 C26.9943261,26.1782021 26.2733478,27.1038404 25.8668261,28.1605426 C25.4603043,29.2160745 25.2570435,30.3336277 25.2570435,31.5132021 L24.1223696,31.5132021 Z" id="Fill-6" fill="#414A4E"></path>
                        <path d="M25.257163,32.6834149 L24.1224891,32.6834149 C23.8008587,32.6834149 23.4935761,32.5582021 23.2687935,32.3323511 C23.0440109,32.1088404 22.9208587,31.8057553 22.926837,31.4909681 C22.9411848,30.6800106 23.0117283,29.9263936 23.1348804,29.2511809 C23.2640109,28.5385213 23.4828152,27.8539468 23.7841196,27.2161809 C24.0830326,26.5819255 24.4787935,25.9675638 24.9594457,25.3871383 C25.4125978,24.8394787 25.9745543,24.2602234 26.6273804,23.6634149 C27.2455326,23.0853298 27.8062935,22.5365 28.2989022,22.0286277 C28.7412935,21.5699043 29.1191196,21.0877766 29.4240109,20.5939468 C29.7145543,20.1235213 29.9369457,19.5934149 30.0899891,19.0200106 C30.2454239,18.433734 30.324337,17.7093723 30.324337,16.8668191 C30.324337,16.0722447 30.2155326,15.3326702 30.0027065,14.6679894 C29.8006413,14.044266 29.4981413,13.5012872 29.1035761,13.0577766 C28.7161848,12.6189468 28.2331413,12.2819255 27.6317283,12.0279894 C26.4002065,11.5084149 24.4764022,11.520117 23.1599891,12.0233085 C22.51075,12.2713936 21.9834674,12.6072447 21.5458587,13.0507553 C21.1058587,13.4977766 20.7567283,14.0430957 20.506837,14.6691596 C20.252163,15.309266 20.1170543,16.0277766 20.1050978,16.8024574 C20.0967283,17.4425638 19.5634674,17.955117 18.9094457,17.955117 L17.7747717,17.955117 C17.4555326,17.955117 17.1494457,17.8299043 16.924663,17.6075638 C16.6998804,17.3852234 16.5755326,17.0844787 16.5791196,16.7708617 C16.5958587,15.4391596 16.84575,14.2268191 17.3216196,13.1654362 C17.7998804,12.102883 18.4574891,11.190117 19.2777065,10.4517128 C20.09075,9.72032979 21.0424891,9.15628723 22.1030326,8.77479787 C24.3389022,7.96969149 27.07575,8.04224468 29.0354239,8.88362766 C30.0887935,9.33415957 30.9879239,9.96607447 31.7100978,10.7629894 C32.4262935,11.5517128 32.9703152,12.4925638 33.3290109,13.5609681 C33.67575,14.5930957 33.8503152,15.7200106 33.8503152,16.9089468 C33.8503152,17.9059681 33.7439022,18.829266 33.5310761,19.6530957 C33.3158587,20.4827766 32.9906413,21.2832021 32.5614022,22.0286277 C32.1429239,22.7588404 31.6072717,23.4796915 30.9675978,24.1724574 C30.3637935,24.8277766 29.6464022,25.5263936 28.83575,26.2484149 C27.8995543,26.9704362 27.3172717,27.7135213 26.9848804,28.5724574 C26.632163,29.4910745 26.4528152,30.4810745 26.4528152,31.5132021 C26.4528152,32.1603298 25.9183587,32.6834149 25.257163,32.6834149 L25.257163,32.6834149 Z M24.8135761,38.7334149 L24.8135761,38.7462872 L24.8135761,38.7334149 Z M24.7741196,41.0352234 C24.1344457,41.0352234 23.5581413,40.8023511 23.1085761,40.3623511 C22.6590109,39.9235213 22.4222717,39.3594787 22.4222717,38.7334149 C22.4222717,38.1143723 22.6542283,37.5503298 23.0954239,37.1056489 C23.992163,36.2022447 25.532163,36.1940532 26.4492283,37.0939468 C26.9059674,37.5386277 27.1462935,38.1073511 27.1462935,38.7334149 C27.1462935,39.3665 26.9011848,39.9340532 26.4360761,40.3752234 C25.9817283,40.8070319 25.4066196,41.0352234 24.7741196,41.0352234 L24.7741196,41.0352234 Z" id="Fill-8" fill="#414A4E"></path>
                    </g>
                </g>
            </g>
        </g>
    </g>
</svg>