<?xml version="1.0" encoding="UTF-8"?>
<svg width="62px" height="62px" viewBox="0 0 62 62" version="1.1" xmlns="http://www.w3.org/2000/svg" xmlns:xlink="http://www.w3.org/1999/xlink">
    <!-- Generator: Sketch 46.2 (44496) - http://www.bohemiancoding.com/sketch -->
    <title>reputation</title>
    <desc>Created with Sketch.</desc>
    <defs></defs>
    <g id="Symbols" stroke="none" stroke-width="1" fill="none" fill-rule="evenodd">
        <g id="reputation" transform="translate(-1.000000, -2.000000)">
            <g>
                <rect id="Rectangle-path" fill-opacity="0" fill="#FFFFFF" fill-rule="nonzero" x="0" y="0" width="64" height="64"></rect>
                <path d="M11.52,40 L5.52,40 C3.03471863,40 1.02,37.9852814 1.02,35.5 C1.02,33.0147186 3.03471863,31 5.52,31 L11.52,31 C14.0052814,31 16.02,33.0147186 16.02,35.5 C16.02,37.9852814 14.0052814,40 11.52,40 Z M5.52,34 C4.69157288,34 4.02,34.6715729 4.02,35.5 C4.02,36.3284271 4.69157288,37 5.52,37 L11.52,37 C12.3484271,37 13.02,36.3284271 13.02,35.5 C13.02,34.6715729 12.3484271,34 11.52,34 L5.52,34 Z" id="Shape" fill="#414A4F" fill-rule="nonzero"></path>
                <path d="M11.52,46 L5.52,46 C3.03471863,46 1.02,43.9852814 1.02,41.5 C1.02,39.0147186 3.03471863,37 5.52,37 L11.52,37 C14.0052814,37 16.02,39.0147186 16.02,41.5 C16.02,43.9852814 14.0052814,46 11.52,46 Z M5.52,40 C4.69157288,40 4.02,40.6715729 4.02,41.5 C4.02,42.3284271 4.69157288,43 5.52,43 L11.52,43 C12.3484271,43 13.02,42.3284271 13.02,41.5 C13.02,40.6715729 12.3484271,40 11.52,40 L5.52,40 Z" id="Shape" fill="#414A4F" fill-rule="nonzero"></path>
                <path d="M11.52,52 L5.52,52 C3.03471863,52 1.02,49.9852814 1.02,47.5 C1.02,45.0147186 3.03471863,43 5.52,43 L11.52,43 C14.0052814,43 16.02,45.0147186 16.02,47.5 C16.02,49.9852814 14.0052814,52 11.52,52 Z M5.52,46 C4.69157288,46 4.02,46.6715729 4.02,47.5 C4.02,48.3284271 4.69157288,49 5.52,49 L11.52,49 C12.3484271,49 13.02,48.3284271 13.02,47.5 C13.02,46.6715729 12.3484271,46 11.52,46 L5.52,46 Z" id="Shape" fill="#414A4F" fill-rule="nonzero"></path>
                <path d="M11.52,58 L5.52,58 C3.03471863,58 1.02,55.9852814 1.02,53.5 C1.02,51.0147186 3.03471863,49 5.52,49 L11.52,49 C14.0052813,49.0000001 16.0199998,51.0147187 16.0199998,53.5 C16.0199998,55.9852813 14.0052813,57.9999999 11.52,58 L11.52,58 Z M5.52,52 C4.69157288,52 4.02,52.6715729 4.02,53.5 C4.02,54.3284271 4.69157288,55 5.52,55 L11.52,55 C12.3484271,55 13.02,54.3284271 13.02,53.5 C13.02,52.6715729 12.3484271,52 11.52,52 L5.52,52 Z" id="Shape" fill="#414A4F" fill-rule="nonzero"></path>
                <path d="M11.5,64 C10.3091771,64.0026551 9.16607271,63.5321474 8.32215837,62.6919838 C7.47824402,61.8518202 7.00264921,60.710823 7,59.52 L7,56.52 C7,55.6915729 7.67157288,55.02 8.5,55.02 C9.32842712,55.02 10,55.6915729 10,56.52 L10,59.52 C10,60.3484271 10.6715729,61.02 11.5,61.02 C12.3284271,61.02 13,60.3484271 13,59.52 C13,58.6915729 13.6715729,58.02 14.5,58.02 C15.3284271,58.02 16,58.6915729 16,59.52 C15.9889889,61.9974673 13.9774918,64.0000245 11.5,64 Z" id="Shape" fill="#414A4F" fill-rule="nonzero"></path>
                <path d="M17.5,64 C16.3091771,64.0026551 15.1660727,63.5321474 14.3221584,62.6919838 C13.478244,61.8518202 13.0026492,60.710823 13,59.52 L13,53.52 C13,52.6915729 13.6715729,52.02 14.5,52.02 C15.3284271,52.02 16,52.6915729 16,53.52 L16,59.52 C16,60.3484271 16.6715729,61.02 17.5,61.02 C18.3284271,61.02 19,60.3484271 19,59.52 C19,58.6915729 19.6715729,58.02 20.5,58.02 C21.3284271,58.02 22,58.6915729 22,59.52 C21.9889889,61.9974673 19.9774918,64.0000245 17.5,64 Z" id="Shape" fill="#414A4F" fill-rule="nonzero"></path>
                <path d="M23.5,64 C22.3091771,64.0026551 21.1660727,63.5321474 20.3221584,62.6919838 C19.478244,61.8518202 19.0026492,60.710823 19,59.52 L19,43.52 C19,42.6915729 19.6715729,42.02 20.5,42.02 C21.3284271,42.02 22,42.6915729 22,43.52 L22,59.52 C22,60.3484271 22.6715729,61.0199999 23.5,61.0199999 C24.3284271,61.0199999 25,60.3484271 25,59.52 C25,58.6915729 25.6715729,58.02 26.5,58.02 C27.3284271,58.02 28,58.6915729 28,59.52 C27.9889889,61.9974673 25.9774918,64.0000245 23.5,64 Z" id="Shape" fill="#414A4F" fill-rule="nonzero"></path>
                <path d="M29.5,64 C28.3091771,64.0026551 27.1660727,63.5321474 26.3221584,62.6919838 C25.478244,61.8518202 25.0026492,60.710823 25,59.52 L25,43.52 C25,42.6915729 25.6715729,42.02 26.5,42.02 C27.3284271,42.02 28,42.6915729 28,43.52 L28,59.52 C28,60.3484271 28.6715729,61.02 29.5,61.02 C30.3284271,61.02 31,60.3484271 31,59.52 L31,38 L25.5,38 C21.9124325,37.9944934 19.0055066,35.0875675 19,31.5 L19,29.5 C19,28.6715729 19.6715729,28 20.5,28 L41.5,28 C46.7444204,28.0055117 50.9944883,32.2555796 51,37.5 C51,38.3284271 50.3284271,39 49.5,39 C48.6715729,39 48,38.3284271 48,37.5 C47.9944934,33.9124325 45.0875675,31.0055066 41.5,31 L22,31 L22,31.5 C22,33.4329966 23.5670034,35 25.5,35 L32.5,35 C33.3284271,35 34,35.6715729 34,36.5 L34,59.5 C34,61.9852814 31.9852814,64 29.5,64 Z" id="Shape" fill="#414A4F" fill-rule="nonzero"></path>
                <rect id="Rectangle-path" fill="#5FBA46" fill-rule="nonzero" x="24" y="3" width="11.5" height="11.5"></rect>
                <path d="M35.5,17 L2.5,17 C1.67157288,17 1,16.3284271 1,15.5 L1,3.5 C1,2.67157288 1.67157288,2 2.5,2 L35.5,2 C36.3284271,2 37,2.67157288 37,3.5 L37,15.5 C37,16.3284271 36.3284271,17 35.5,17 Z M4,14 L34,14 L34,5 L4,5 L4,14 Z" id="Shape" fill="#414A4F" fill-rule="nonzero"></path>
                <path d="M61.5,64 L49.5,64 C48.6715729,64 48,63.3284271 48,62.5 L48,29.5 C48,28.6715729 48.6715729,28 49.5,28 L61.5,28 C62.3284271,28 63,28.6715729 63,29.5 L63,62.5 C63,63.3284271 62.3284271,64 61.5,64 Z M51,61 L60,61 L60,31 L51,31 L51,61 Z" id="Shape" fill="#414A4F" fill-rule="nonzero"></path>
                <circle id="Oval" fill="#414A4F" fill-rule="nonzero" cx="29.5" cy="9.5" r="1.5"></circle>
                <path d="M41.5,61 L32.5,61 C31.6715729,61 31,60.3284271 31,59.5 C31,58.6715729 31.6715729,58 32.5,58 L41.5,58 C45.0875675,57.9944934 47.9944934,55.0875675 48,51.5 C48,50.6715729 48.6715729,50 49.5,50 C50.3284271,50 51,50.6715729 51,51.5 C50.9944883,56.7444204 46.7444204,60.9944883 41.5,61 L41.5,61 Z" id="Shape" fill="#414A4F" fill-rule="nonzero"></path>
                <path d="M35.5,31 C34.6715729,31 34,30.3284271 34,29.5 L34,23.5 C33.9944934,19.9124325 31.0875675,17.0055066 27.5,17 C26.6715729,17 26,16.3284271 26,15.5 C26,14.6715729 26.6715729,14 27.5,14 C32.7444204,14.0055117 36.9944883,18.2555796 37,23.5 L37,29.5 C37,30.3284271 36.3284271,31 35.5,31 Z" id="Shape" fill="#414A4F" fill-rule="nonzero"></path>
                <path d="M5.5,34 C4.68694573,34.0002891 4.0216814,33.3527652 4,32.54 L4,23.54 C3.99203116,21.0143292 4.98908284,18.5892272 6.77125477,16.7995514 C8.5534267,15.0098756 10.9743181,14.0026432 13.5,14 C14.3284271,14 15,14.6715729 15,15.5 C15,16.3284271 14.3284271,17 13.5,17 C9.91243253,17.0055066 7.00550664,19.9124325 7,23.5 L7,32.5 C7,32.8978247 6.84196474,33.2793556 6.56066017,33.5606602 C6.2793556,33.8419647 5.89782473,34 5.5,34 Z" id="Shape" fill="#414A4F" fill-rule="nonzero"></path>
                <circle id="Oval" fill="#414A4F" fill-rule="nonzero" cx="55.5" cy="56.5" r="1.5"></circle>
                <path d="M24,3 L24,15.5" id="Shape" stroke="#414A4F" stroke-width="3"></path>
            </g>
        </g>
    </g>
</svg>