<?xml version="1.0" encoding="UTF-8"?>
<svg width="64px" height="64px" viewBox="0 0 64 64" version="1.1" xmlns="http://www.w3.org/2000/svg" xmlns:xlink="http://www.w3.org/1999/xlink">
    <!-- Generator: Sketch 46.2 (44496) - http://www.bohemiancoding.com/sketch -->
    <title>settings</title>
    <desc>Created with Sketch.</desc>
    <defs></defs>
    <g id="Symbols" stroke="none" stroke-width="1" fill="none" fill-rule="evenodd">
        <g id="settings" fill-rule="nonzero">
            <g>
                <rect id="Rectangle-path" fill-opacity="0" fill="#FFFFFF" x="0" y="0" width="64" height="64"></rect>
                <path d="M35.51,64 L28.51,64 C26.6489117,63.9603321 25.0611871,62.6420647 24.68,60.82 L23.92,56.71 C22.67732,56.3017699 21.4672176,55.8003462 20.3,55.21 L16.85,57.57 C15.273368,58.5744964 13.2168907,58.3853005 11.85,57.11 L6.85,52.11 C5.53941961,50.7591244 5.34789385,48.6773227 6.39,47.11 L8.76,43.66 C8.169237,42.4929739 7.66780009,41.2828395 7.26,40.04 L3.15,39.27 C1.36456617,38.8830598 0.068165045,37.3356095 0,35.51 L0,28.51 C0.03966788,26.6489117 1.35793531,25.0611871 3.18,24.68 L7.29,23.92 C7.69772802,22.6771338 8.19916716,21.466994 8.79,20.3 L6.43,16.81 C5.38789385,15.2426773 5.57941961,13.1608756 6.89,11.81 L11.89,6.81 C13.2568907,5.53469946 15.313368,5.34550356 16.89,6.35 L20.34,8.72 C21.506994,8.12916716 22.7171338,7.62772802 23.96,7.22 L24.73,3.11 C25.1326861,1.34039522 26.676273,0.063651822 28.49,0 L35.49,0 C37.3510883,0.03966788 38.9388129,1.35793531 39.32,3.18 L40.08,7.29 C41.32268,7.69823015 42.5327824,8.1996538 43.7,8.79 L47.15,6.43 C48.726632,5.42550356 50.7831093,5.61469946 52.15,6.89 L57.15,11.89 C58.4605804,13.2408756 58.6521062,15.3226773 57.61,16.89 L55.25,20.34 C55.8403462,21.5072176 56.3417699,22.71732 56.75,23.96 L61.84,24.96 C63.0515714,25.2207481 63.9372801,26.2622759 64,27.5 L64,36.5 C63.9857341,37.7959286 63.0622949,38.90322 61.79,39.15 L58.61,39.74 C58.0585715,39.8464704 57.4941216,39.6338351 57.15,39.19 C53.8758324,35.0053259 48.4515161,33.1303824 43.2920672,34.3999323 C38.1326182,35.6694823 34.1976856,39.8473916 33.2391815,45.07357 C32.2806773,50.2997483 34.4768818,55.6021352 38.85,58.62 C39.3364181,58.9569788 39.5792677,59.548435 39.47,60.13 L39.34,60.82 C38.9588129,62.6420647 37.3710883,63.9603321 35.51,64 Z M20.17,52 C20.4255452,52.0001167 20.6768238,52.065518 20.9,52.19 C22.3932975,53.0316746 23.9766006,53.7025657 25.62,54.19 C26.1665935,54.3474684 26.5770892,54.8005627 26.68,55.36 L27.61,60.36 C27.7215772,60.7635687 28.0727652,61.0548952 28.49,61.09 L35.49,61.09 C35.8311488,61.0665586 36.1366669,60.8704235 36.3,60.57 C31.5605732,56.6437488 29.4002224,50.4060963 30.6960697,44.3895861 C31.9919169,38.3730759 36.5285534,33.5778331 42.4640635,31.9507698 C48.3995736,30.3237065 54.7472968,32.1352896 58.93,36.65 L61,36.27 L61,27.75 L55.27,26.67 C54.714389,26.5636692 54.2658538,26.1538008 54.11,25.61 C53.6212963,23.9670565 52.9504641,22.3838925 52.11,20.89 C51.8383368,20.3934837 51.8692745,19.7863309 52.19,19.32 L55.07,15.12 C55.278081,14.7675235 55.2503498,14.3238245 55,14 L50,9 C49.6742169,8.74353269 49.2288097,8.70055479 48.86,8.89 L44.66,11.76 C44.191748,12.0775549 43.5846549,12.1046227 43.09,11.83 C41.5965529,10.9886296 40.0132848,10.3177533 38.37,9.83 C37.8234065,9.67253165 37.4129108,9.2194373 37.31,8.66 L36.38,3.66 C36.2477919,3.2902224 35.9113911,3.03205432 35.52,3 L28.52,3 C28.0989852,3.03107821 27.7428378,3.32319909 27.63,3.73 L26.69,8.73 C26.5837875,9.29465416 26.1643667,9.74902667 25.61,9.9 C23.9666866,10.3876737 22.3834098,11.0585537 20.89,11.9 C20.3934837,12.1716632 19.7863309,12.1407255 19.32,11.82 L15.12,8.9 C14.7578301,8.71866936 14.3243168,8.75737591 14,9 L9,14 C8.72322476,14.3212421 8.6791413,14.7821146 8.89,15.15 L11.76,19.35 C12.0807255,19.8163309 12.1116632,20.4234837 11.84,20.92 C10.9982492,22.4132601 10.3273544,23.996572 9.84,25.64 C9.68253165,26.1865935 9.2294373,26.5970892 8.67,26.7 L3.67,27.63 C3.26643126,27.7415772 2.97510484,28.0927652 2.94,28.51 L2.94,35.51 C2.97107821,35.9310148 3.26319909,36.2871622 3.67,36.4 L8.67,37.34 C9.24972502,37.4200871 9.72993651,37.8300237 9.9,38.39 C10.3871141,40.0335142 11.0580202,41.6168526 11.9,43.11 C12.1758091,43.6090628 12.1448074,44.2213482 11.82,44.69 L8.9,48.88 C8.70040064,49.2384939 8.74004739,49.6825375 9,50 L14,55 C14.3279199,55.2606864 14.7786078,55.3037957 15.15,55.11 L19.35,52.24 C19.5940439,52.0816672 19.8790986,51.9982365 20.17,52 Z" id="Shape" fill="#414A4F"></path>
                <path d="M31.53,48 L31.53,48 C22.7592568,47.7422474 15.8324386,40.4687178 16.0030254,31.6958464 C16.1736123,22.922975 23.3779524,15.9242232 32.1520858,16.0076275 C40.9262191,16.0910317 47.9962134,23.2254711 48,32 C48,32.19 48,32.37 48,32.55 C47.9729151,33.3627327 47.3031626,34.0058724 46.49,34 C39.3852002,34.0038372 33.4936067,39.5023666 33,46.59 C32.9531468,47.3716475 32.3129206,47.985742 31.53,48 Z M32,19 C25.1576752,18.9852898 19.4751607,24.2769303 19.0030356,31.102963 C18.5309104,37.9289957 23.4308037,43.9525725 30.21,44.88 C31.4239305,37.4479064 37.5022437,31.7723483 45,31.07 C44.5112945,24.2558221 38.8316577,18.9824978 32,19 Z" id="Shape" fill="#414A4F"></path>
                <path d="M46.5,64 C37.3873016,64 30,56.6126984 30,47.5 C30,38.3873016 37.3873016,31 46.5,31 C55.6126984,31 63,38.3873016 63,47.5 C62.9889799,56.6081298 55.6081298,63.9889799 46.5,64 Z M46.5,34 C39.0441559,34 33,40.0441559 33,47.5 C33,54.9558441 39.0441559,61 46.5,61 C53.9558441,61 60,54.9558441 60,47.5 C59.9889855,40.048723 53.951277,34.0110145 46.5,34 Z" id="Shape" fill="#414A4F"></path>
                <circle id="Oval" fill="#5FBA46" cx="46.5" cy="47.5" r="1.5"></circle>
                <path d="M46.5,52 C44.0147186,52 42,49.9852814 42,47.5 C42,45.0147186 44.0147186,43 46.5,43 C48.9852814,43 51,45.0147186 51,47.5 C51,49.9852814 48.9852814,52 46.5,52 L46.5,52 Z M46.5,46 C45.6715729,46 45,46.6715729 45,47.5 C45,48.3284271 45.6715729,49 46.5,49 C47.3284271,49 48,48.3284271 48,47.5 C48,46.6715729 47.3284271,46 46.5,46 Z" id="Shape" fill="#414A4F"></path>
                <path d="M46.5,46 C45.6715729,46 45,45.3284271 45,44.5 L45,38.5 C45,37.6715729 45.6715729,37 46.5,37 C47.3284271,37 48,37.6715729 48,38.5 L48,44.5 C48,45.3284271 47.3284271,46 46.5,46 Z" id="Shape" fill="#414A4F"></path>
                <path d="M55.5,49 L49.5,49 C48.6715729,49 48,48.3284271 48,47.5 C48,46.6715729 48.6715729,46 49.5,46 L55.5,46 C56.3284271,46 57,46.6715729 57,47.5 C57,48.3284271 56.3284271,49 55.5,49 Z" id="Shape" fill="#414A4F"></path>
            </g>
        </g>
    </g>
</svg>