<?xml version="1.0" encoding="UTF-8"?>
<svg width="419px" height="819px" viewBox="0 0 419 819" version="1.1" xmlns="http://www.w3.org/2000/svg" xmlns:xlink="http://www.w3.org/1999/xlink">
    <!-- Generator: Sketch 47.1 (45422) - http://www.bohemiancoding.com/sketch -->
    <title>smartphone</title>
    <desc>Created with Sketch.</desc>
    <defs>
        <rect id="path-1" x="0" y="0" width="415" height="815" rx="3"></rect>
    </defs>
    <g id="Mobile-landing" stroke="none" stroke-width="1" fill="none" fill-rule="evenodd">
        <g id="MobileApp-landing" transform="translate(-1345.000000, -1741.000000)">
            <g id="Screens" transform="translate(-15.000000, 1387.000000)">
                <g id="Screen-video" transform="translate(1362.000000, 356.000000)">
                    <g id="smartphone">
                        <g id="Rectangle-8">
                            <use fill="#FFFFFF" fill-rule="evenodd" xlink:href="#path-1"></use>
                            <rect stroke="#4A4A4A" stroke-width="2" x="-1" y="-1" width="417" height="817" rx="3"></rect>
                        </g>
                        <circle id="Oval-2" stroke="#4A4A4A" stroke-width="2" cx="10.5" cy="9.5" r="2.5"></circle>
                        <circle id="Oval-2" stroke="#4A4A4A" stroke-width="2" cx="20.5" cy="9.5" r="2.5"></circle>
                        <circle id="Oval-2" stroke="#4A4A4A" stroke-width="2" cx="30.5" cy="9.5" r="2.5"></circle>
                    </g>
                </g>
            </g>
        </g>
    </g>
</svg>